…
    ## Rows: 822 Columns: 9
    ## ── Column specification ────────────────────────────────────────────────────────
    ## Delimiter: ","
    ## dbl  (8): prez_gop, gov_gop, sen_gop, rep_gop, prez_dem, gov_dem, sen_dem, r...
    ## date (1): mon
    ## 
    ## ℹ Use `spec()` to retrieve the full column specification for this data.
    ## ℹ Specify the column types or set `show_col_types = FALSE` to quiet this message.

``` r
pols_df
```

    ## # A tibble: 1,644 × 10
    ##     year month  prez  whitehouse gov_dem gov_gop rep_dem rep_gop sen_dem sen_gop
    ##    <dbl> <chr>  <chr> <chr>        <dbl>   <dbl>   <dbl>   <dbl>   <dbl>   <dbl>
    ##  1  1947 janua… gop   no              23      23     198     253      45      51
    ##  2  1947 janua… dem   yes             23      23     198     253      45      51
    ##  3  1947 febru… gop   no              23      23     198     253      45      51
    ##  4  1947 febru… dem   yes             23      23     198     253      45      51
    ##  5  1947 march  gop   no              23      23     198     253      45      51
    ##  6  1947 march  dem   yes             23      23     198     253      45      51
    ##  7  1947 april  gop   no              23      23     198     253      45      51
    ##  8  1947 april  dem   yes             23      23     198     253      45      51
    ##  9  1947 may    gop   no              23      23     198     253      45      51
    ## 10  1947 may    dem   yes             23      23     198     253      45      51
    ## # ℹ 1,634 more rows
…
    ## Rows: 787 Columns: 2
    ## ── Column specification ────────────────────────────────────────────────────────
    ## Delimiter: ","
    ## chr (1): date
    ## dbl (1): close
    ## 
    ## ℹ Use `spec()` to retrieve the full column specification for this data.
    ## ℹ Specify the column types or set `show_col_types = FALSE` to quiet this message.

``` r
snp_df
```

    ## # A tibble: 787 × 3
    ##     year month    snp_close
    ##    <dbl> <chr>        <dbl>
    ##  1  2015 july         2080.
    ##  2  2015 june         2063.
    ##  3  2015 may          2107.
    ##  4  2015 april        2086.
    ##  5  2015 march        2068.
    ##  6  2015 february     2104.
    ##  7  2015 january      1995.
    ##  8  2014 december     2059.
    ##  9  2014 november     2068.
    ## 10  2014 october      2018.
    ## # ℹ 777 more rows
…
    ## Rows: 68 Columns: 13
    ## ── Column specification ────────────────────────────────────────────────────────
    ## Delimiter: ","
    ## dbl (13): Year, Jan, Feb, Mar, Apr, May, Jun, Jul, Aug, Sep, Oct, Nov, Dec
    ## 
    ## ℹ Use `spec()` to retrieve the full column specification for this data.
    ## ℹ Specify the column types or set `show_col_types = FALSE` to quiet this message.

``` r
unemployment_df
```

    ## # A tibble: 816 × 3
    ##     year month     unemployment_percent
    ##    <dbl> <chr>                    <dbl>
    ##  1  1948 january                    3.4
    ##  2  1948 february                   3.8
    ##  3  1948 march                      4  
    ##  4  1948 april                      3.9
    ##  5  1948 may                        3.5
    ##  6  1948 june                       3.6
    ##  7  1948 july                       3.6
    ##  8  1948 august                     3.9
    ##  9  1948 september                  3.8
    ## 10  1948 october                    3.7
    ## # ℹ 806 more rows
…
    ## Joining with `by = join_by(year, month)`

``` r
five_thirty_eight = 
  left_join(snp_into_pol, unemployment_df)
```

    ## Joining with `by = join_by(year, month)`

``` r
five_thirty_eight
```

    ## # A tibble: 1,644 × 12
    ##     year month  prez  whitehouse gov_dem gov_gop rep_dem rep_gop sen_dem sen_gop
    ##    <dbl> <chr>  <chr> <chr>        <dbl>   <dbl>   <dbl>   <dbl>   <dbl>   <dbl>
    ##  1  1947 janua… gop   no              23      23     198     253      45      51
    ##  2  1947 janua… dem   yes             23      23     198     253      45      51
    ##  3  1947 febru… gop   no              23      23     198     253      45      51
    ##  4  1947 febru… dem   yes             23      23     198     253      45      51
    ##  5  1947 march  gop   no              23      23     198     253      45      51
    ##  6  1947 march  dem   yes             23      23     198     253      45      51
    ##  7  1947 april  gop   no              23      23     198     253      45      51
    ##  8  1947 april  dem   yes             23      23     198     253      45      51
    ##  9  1947 may    gop   no              23      23     198     253      45      51
    ## 10  1947 may    dem   yes             23      23     198     253      45      51
    ## # ℹ 1,634 more rows
    ## # ℹ 2 more variables: snp_close <dbl>, unemployment_percent <dbl>
…
  relocate(dumpster, year, month, day) %>% 
  
  mutate(year = as.numeric(year)) %>% 
  
  mutate(trash_wheel_name = "trash_wheel_mr") %>% 
  
  relocate(trash_wheel_name) %>% 
  
  mutate(id = row_number())

trash_wheel_mr_df
```

    ## # A tibble: 584 × 16
    ##    trash_wheel_name dumpster  year month day   weight_tons volume_cubic_yards
    ##    <chr>               <dbl> <dbl> <chr> <chr>       <dbl>              <dbl>
    ##  1 trash_wheel_mr          1  2014 may   16           4.31                 18
    ##  2 trash_wheel_mr          2  2014 may   16           2.74                 13
    ##  3 trash_wheel_mr          3  2014 may   16           3.45                 15
    ##  4 trash_wheel_mr          4  2014 may   17           3.1                  15
    ##  5 trash_wheel_mr          5  2014 may   17           4.06                 18
    ##  6 trash_wheel_mr          6  2014 may   20           2.71                 13
    ##  7 trash_wheel_mr          7  2014 may   21           1.91                  8
    ##  8 trash_wheel_mr          8  2014 may   28           3.7                  16
    ##  9 trash_wheel_mr          9  2014 june  05           2.52                 14
    ## 10 trash_wheel_mr         10  2014 june  11           3.76                 18
    ## # ℹ 574 more rows
    ## # ℹ 9 more variables: plastic_bottles <dbl>, polystyrene <dbl>,
    ## #   cigarette_butts <dbl>, glass_bottles <dbl>, plastic_bags <dbl>,
    ## #   wrappers <dbl>, sports_balls <dbl>, homes_powered <dbl>, id <int>
…
  select(-homes_powered) %>% 
  
  rename(homes_powered = homes_powered_2) %>% 
  
  mutate(year = as.numeric(year)) %>% 

  mutate(trash_wheel_name = "trash_wheel_nhp_mr") %>% 
  
  relocate(trash_wheel_name)
  
trash_wheel_nhp_df
```

    ## # A tibble: 584 × 17
    ##    trash_wheel_name   dumpster  year month day   weight_tons volume_cubic_yards
    ##    <chr>                 <dbl> <dbl> <chr> <chr>       <dbl>              <dbl>
    ##  1 trash_wheel_nhp_mr        1  2014 may   16           4.31                 18
    ##  2 trash_wheel_nhp_mr        2  2014 may   16           2.74                 13
    ##  3 trash_wheel_nhp_mr        3  2014 may   16           3.45                 15
    ##  4 trash_wheel_nhp_mr        4  2014 may   17           3.1                  15
    ##  5 trash_wheel_nhp_mr        5  2014 may   17           4.06                 18
    ##  6 trash_wheel_nhp_mr        6  2014 may   20           2.71                 13
    ##  7 trash_wheel_nhp_mr        7  2014 may   21           1.91                  8
    ##  8 trash_wheel_nhp_mr        8  2014 may   28           3.7                  16
    ##  9 trash_wheel_nhp_mr        9  2014 june  05           2.52                 14
    ## 10 trash_wheel_nhp_mr       10  2014 june  11           3.76                 18
    ## # ℹ 574 more rows
    ## # ℹ 10 more variables: plastic_bottles <dbl>, polystyrene <dbl>,
    ## #   cigarette_butts <dbl>, glass_bottles <dbl>, plastic_bags <dbl>,
    ## #   wrappers <dbl>, sports_balls <dbl>, id <int>, weight_ton_power <dbl>,
    ## #   homes_powered <dbl>
…
  select(-year2, -month2, -id) %>% 
  
  relocate(dumpster, year, month, day) %>% 
  
  mutate(year = as.numeric(year)) %>% 

  mutate(trash_wheel_name = "trash_wheel_prof") %>% 
  
  relocate(trash_wheel_name)

trash_wheel_prof_df
```

    ## # A tibble: 106 × 14
    ##    trash_wheel_name dumpster  year month    day   weight_tons volume_cubic_yards
    ##    <chr>               <dbl> <dbl> <chr>    <chr>       <dbl>              <dbl>
    ##  1 trash_wheel_prof        1  2017 january  02           1.79                 15
    ##  2 trash_wheel_prof        2  2017 january  30           1.58                 15
    ##  3 trash_wheel_prof        3  2017 february 26           2.32                 18
    ##  4 trash_wheel_prof        4  2017 february 26           3.72                 15
    ##  5 trash_wheel_prof        5  2017 february 28           1.45                 15
    ##  6 trash_wheel_prof        6  2017 march    30           1.71                 15
    ##  7 trash_wheel_prof        7  2017 april    01           1.82                 15
    ##  8 trash_wheel_prof        8  2017 april    20           2.37                 15
    ##  9 trash_wheel_prof        9  2017 may      10           2.64                 15
    ## 10 trash_wheel_prof       10  2017 may      26           2.78                 15
    ## # ℹ 96 more rows
    ## # ℹ 7 more variables: plastic_bottles <dbl>, polystyrene <dbl>,
    ## #   cigarette_butts <dbl>, glass_bottles <dbl>, plastic_bags <dbl>,
    ## #   wrappers <dbl>, homes_powered <dbl>
…
  select(-year2, -month2, -id)%>% 
  
  relocate(dumpster, year, month, day) %>% 
  
  mutate(year = as.numeric(year)) %>% 

  mutate(trash_wheel_name = "trash_wheel_gwynnda") %>% 
  
  relocate(trash_wheel_name)

gwynnda_df
```

    ## # A tibble: 155 × 13
    ##    trash_wheel_name    dumpster  year month day   weight_tons volume_cubic_yards
    ##    <chr>                  <dbl> <dbl> <chr> <chr>       <dbl>              <dbl>
    ##  1 trash_wheel_gwynnda        1  2021 july  03           0.93                 15
    ##  2 trash_wheel_gwynnda        2  2021 july  07           2.26                 15
    ##  3 trash_wheel_gwynnda        3  2021 july  07           1.62                 15
    ##  4 trash_wheel_gwynnda        4  2021 july  16           1.76                 15
    ##  5 trash_wheel_gwynnda        5  2021 july  30           1.53                 15
    ##  6 trash_wheel_gwynnda        6  2021 augu… 11           2.06                 15
    ##  7 trash_wheel_gwynnda        7  2021 augu… 14           1.9                  15
    ##  8 trash_wheel_gwynnda        8  2021 augu… 16           2.16                 15
    ##  9 trash_wheel_gwynnda        9  2021 augu… 16           2.6                  15
    ## 10 trash_wheel_gwynnda       10  2021 augu… 17           3.21                 15
    ## # ℹ 145 more rows
    ## # ℹ 6 more variables: plastic_bottles <dbl>, polystyrene <dbl>,
    ## #   cigarette_butts <dbl>, plastic_bags <dbl>, wrappers <dbl>,
    ## #   homes_powered <dbl>
…
mr_prof_df = 
  bind_rows(trash_wheel_nhp_df, trash_wheel_prof_df)

trash_wheel_family_df = 
  bind_rows(mr_prof_df, gwynnda_df)

trash_wheel_family_df = relocate(trash_wheel_family_df, year, month, day)

trash_wheel_family_df
```

    ## # A tibble: 845 × 17
    ##     year month day   trash_wheel_name   dumpster weight_tons volume_cubic_yards
    ##    <dbl> <chr> <chr> <chr>                 <dbl>       <dbl>              <dbl>
    ##  1  2014 may   16    trash_wheel_nhp_mr        1        4.31                 18
    ##  2  2014 may   16    trash_wheel_nhp_mr        2        2.74                 13
    ##  3  2014 may   16    trash_wheel_nhp_mr        3        3.45                 15
    ##  4  2014 may   17    trash_wheel_nhp_mr        4        3.1                  15
    ##  5  2014 may   17    trash_wheel_nhp_mr        5        4.06                 18
    ##  6  2014 may   20    trash_wheel_nhp_mr        6        2.71                 13
    ##  7  2014 may   21    trash_wheel_nhp_mr        7        1.91                  8
    ##  8  2014 may   28    trash_wheel_nhp_mr        8        3.7                  16
    ##  9  2014 june  05    trash_wheel_nhp_mr        9        2.52                 14
    ## 10  2014 june  11    trash_wheel_nhp_mr       10        3.76                 18
    ## # ℹ 835 more rows
    ## # ℹ 10 more variables: plastic_bottles <dbl>, polystyrene <dbl>,
    ## #   cigarette_butts <dbl>, glass_bottles <dbl>, plastic_bags <dbl>,
    ## #   wrappers <dbl>, sports_balls <dbl>, id <int>, weight_ton_power <dbl>,
    ## #   homes_powered <dbl>
…
    ## Rows: 483 Columns: 6
    ## ── Column specification ────────────────────────────────────────────────────────
    ## Delimiter: ","
    ## chr (1): Age at onset
    ## dbl (5): ID, Current Age, Sex, Education, apoe4
    ## 
    ## ℹ Use `spec()` to retrieve the full column specification for this data.
    ## ℹ Specify the column types or set `show_col_types = FALSE` to quiet this message.

``` r
mci_baseline
```

    ## # A tibble: 483 × 6
    ##       id current_age sex    education apoe4_carrier_status onset_age
    ##    <dbl>       <dbl> <chr>      <dbl> <chr>                <chr>    
    ##  1     1        63.1 female        16 carrier              .        
    ##  2     2        65.6 female        20 carrier              .        
    ##  3     3        62.5 male          16 carrier              66.8     
    ##  4     4        69.8 female        16 noncarrier           .        
    ##  5     5        66   male          16 noncarrier           68.7     
    ##  6     6        62.5 male          16 noncarrier           .        
    ##  7     7        66.5 male          18 noncarrier           74       
    ##  8     8        67.2 female        18 noncarrier           .        
    ##  9     9        66.7 female        16 noncarrier           .        
    ## 10    10        64.1 female        18 noncarrier           .        
    ## # ℹ 473 more rows
…
    ## Rows: 487 Columns: 6
    ## ── Column specification ────────────────────────────────────────────────────────
    ## Delimiter: ","
    ## chr (5): Baseline, Time 2, Time 4, Time 6, Time 8
    ## dbl (1): Study ID
    ## 
    ## ℹ Use `spec()` to retrieve the full column specification for this data.
    ## ℹ Specify the column types or set `show_col_types = FALSE` to quiet this message.

``` r
mci_amyloid
```

    ## # A tibble: 487 × 6
    ##       id baseline    time_2      time_4      time_6      time_8     
    ##    <dbl> <chr>       <chr>       <chr>       <chr>       <chr>      
    ##  1     1 0.1105487   <NA>        0.109325197 0.104756131 0.107257697
    ##  2     2 0.107481183 0.109157373 0.109457839 0.105729713 0.10661845 
    ##  3     3 0.106087034 0.108744509 0.106065035 <NA>        0.106152357
    ##  4     4 0.109251358 0.108699686 0.110540386 0.107476797 0.111212209
    ##  5     5 0.107950408 0.112273883 0.115139677 0.106606054 0.106052066
    ##  6     6 0.112426974 0.112853415 0.11143945  0.110279277 0.114982747
    ##  7     7 0.112246391 <NA>        0.104251905 0.112485583 0.112055612
    ##  8     8 0.109563372 0.109470828 <NA>        0.108742168 0.110268552
    ##  9     9 0.112101884 0.109781199 0.108832888 <NA>        <NA>       
    ## 10    10 0.1116094   0.111592149 <NA>        <NA>        0.110051296
    ## # ℹ 477 more rows
…
mci_amyloid = subset(mci_amyloid , id != 487) 

mci_amyloid = subset(mci_amyloid , id != 486) 

mci_amyloid = subset(mci_amyloid , id != 485) 

mci_amyloid = subset(mci_amyloid , id != 484) 

mci_amyloid
```

    ## # A tibble: 483 × 6
    ##       id baseline    time_2      time_4      time_6      time_8     
    ##    <dbl> <chr>       <chr>       <chr>       <chr>       <chr>      
    ##  1     1 0.1105487   <NA>        0.109325197 0.104756131 0.107257697
    ##  2     2 0.107481183 0.109157373 0.109457839 0.105729713 0.10661845 
    ##  3     3 0.106087034 0.108744509 0.106065035 <NA>        0.106152357
    ##  4     4 0.109251358 0.108699686 0.110540386 0.107476797 0.111212209
    ##  5     5 0.107950408 0.112273883 0.115139677 0.106606054 0.106052066
    ##  6     6 0.112426974 0.112853415 0.11143945  0.110279277 0.114982747
    ##  7     7 0.112246391 <NA>        0.104251905 0.112485583 0.112055612
    ##  8     8 0.109563372 0.109470828 <NA>        0.108742168 0.110268552
    ##  9     9 0.112101884 0.109781199 0.108832888 <NA>        <NA>       
    ## 10    10 0.1116094   0.111592149 <NA>        <NA>        0.110051296
    ## # ℹ 473 more rows
…
